…
**Response**:

What date did the oldest song(s) in this dataset leave the charts? Give
only the *distinct* dates.

``` r
billboard_songs %>%
  arrange(date)%>%
  #mutate(date_left = date + weeks(`weeks on chart`))%>%
  distinct(date)
```

    ## # A tibble: 3,775 x 1
    ##    date      
    ##    <date>    
    ##  1 1940-07-20
    ##  2 1940-07-27
    ##  3 1940-08-03
    ##  4 1940-08-24
    ##  5 1940-08-31
    ##  6 1940-09-07
    ##  7 1940-09-14
    ##  8 1940-09-21
    ##  9 1940-09-28
    ## 10 1940-10-05
    ## # … with 3,765 more rows
…
Now you can use this information to answer the question above.

``` r
featured_artists <- as.data.frame(feat_artist)
featured_artists %>%
  group_by(feat_artist)%>%
  summarise(count = n())%>%
  arrange(desc(count))
```

    ## # A tibble: 906 x 2
    ##    feat_artist     count
    ##    <chr>           <int>
    ##  1 " LIL WAYNE"       40
    ##  2 " DRAKE"           25
    ##  3 " NICKI MINAJ"     23
    ##  4 " CHRIS BROWN"     21
    ##  5 " JAY-Z"           18
    ##  6 " T-PAIN"          17
    ##  7 " AL ALBERTS"      15
    ##  8 " AKON"            14
    ##  9 " LUDACRIS"        14
    ## 10 " MARK LINDSEY"    13
    ## # … with 896 more rows
…
``` r
str4 <- unlist(str3)
str5 <- str_trim(str4, side = "both")
coll_artist <- str5
```

``` r
coll_artists <- as.data.frame(coll_artist)
coll_artists %>%
  group_by(coll_artist)%>%
  summarise(count = n())%>%
  arrange(desc(count))
```

    ## # A tibble: 9,976 x 2
    ##    coll_artist     count
    ##    <chr>           <int>
    ##  1 GLEE CAST         204
    ##  2 ELVIS PRESLEY     150
    ##  3 HIS ORCHESTRA     108
    ##  4 FRANK SINATRA      97
    ##  5 RAY CHARLES        87
    ##  6 ARETHA FRANKLIN    84
    ##  7 NAT KING COLE      83
    ##  8 PERRY COMO         82
    ##  9 FATS DOMINO        81
    ## 10 JAMES BROWN        80
    ## # … with 9,966 more rows
…
